…
prof_merge_df = 
  mutate(prof_df,
         Trash_wheel = c('Pro'),
         dumpster = as.character(dumpster),
         year = as.character(year))

merge_df = bind_rows(mr_merge_df, prof_merge_df) %>% 
  relocate(Trash_wheel, .before = "weight")

view(merge_df)
show(merge_df)
```

    ## # A tibble: 641 × 15
    ##    dumps…¹ month year  date                Trash…² weight volume plast…³ polys…⁴
    ##    <chr>   <chr> <chr> <dttm>              <chr>    <dbl>  <dbl>   <dbl>   <dbl>
    ##  1 1       May   2014  2014-05-16 00:00:00 Mr        4.31     18    1450    1820
    ##  2 2       May   2014  2014-05-16 00:00:00 Mr        2.74     13    1120    1030
    ##  3 3       May   2014  2014-05-16 00:00:00 Mr        3.45     15    2450    3100
    ##  4 4       May   2014  2014-05-17 00:00:00 Mr        3.1      15    2380    2730
    ##  5 5       May   2014  2014-05-17 00:00:00 Mr        4.06     18     980     870
    ##  6 6       May   2014  2014-05-20 00:00:00 Mr        2.71     13    1430    2140
    ##  7 7       May   2014  2014-05-21 00:00:00 Mr        1.91      8     910    1090
    ##  8 8       May   2014  2014-05-28 00:00:00 Mr        3.7      16    3580    4310
    ##  9 9       June  2014  2014-06-05 00:00:00 Mr        2.52     14    2400    2790
    ## 10 10      June  2014  2014-06-11 00:00:00 Mr        3.76     18    1340    1730
    ## # … with 631 more rows, 6 more variables: cigarette_butts <dbl>,
    ## #   glass_bottles <dbl>, grocery_bags <dbl>, chip_bags <dbl>,
    ## #   sports_balls <int>, homes_powered <dbl>, and abbreviated variable names
    ## #   ¹​dumpster, ²​Trash_wheel, ³​plastic_bottles, ⁴​polystyrene
…
    ## Rows: 822 Columns: 9
    ## ── Column specification ────────────────────────────────────────────────────────
    ## Delimiter: ","
    ## dbl  (8): prez_gop, gov_gop, sen_gop, rep_gop, prez_dem, gov_dem, sen_dem, r...
    ## date (1): mon
    ## 
    ## ℹ Use `spec()` to retrieve the full column specification for this data.
    ## ℹ Specify the column types or set `show_col_types = FALSE` to quiet this message.

``` r
show(Pols_month_df)
```

    ## # A tibble: 822 × 9
    ##     year month president gov_gop sen_gop rep_gop gov_dem sen_dem rep_dem
    ##    <int> <chr> <chr>       <dbl>   <dbl>   <dbl>   <dbl>   <dbl>   <dbl>
    ##  1  1947 Jan   dem            23      51     253      23      45     198
    ##  2  1947 Feb   dem            23      51     253      23      45     198
    ##  3  1947 Mar   dem            23      51     253      23      45     198
    ##  4  1947 Apr   dem            23      51     253      23      45     198
    ##  5  1947 May   dem            23      51     253      23      45     198
    ##  6  1947 Jun   dem            23      51     253      23      45     198
    ##  7  1947 Jul   dem            23      51     253      23      45     198
    ##  8  1947 Aug   dem            23      51     253      23      45     198
    ##  9  1947 Sep   dem            23      51     253      23      45     198
    ## 10  1947 Oct   dem            23      51     253      23      45     198
    ## # … with 812 more rows
…
    ## Rows: 787 Columns: 2
    ## ── Column specification ────────────────────────────────────────────────────────
    ## Delimiter: ","
    ## chr (1): date
    ## dbl (1): close
    ## 
    ## ℹ Use `spec()` to retrieve the full column specification for this data.
    ## ℹ Specify the column types or set `show_col_types = FALSE` to quiet this message.

``` r
show(snp_df)
```

    ## # A tibble: 787 × 3
    ##     year month close
    ##    <int> <chr> <dbl>
    ##  1  2015 Jul   2080.
    ##  2  2015 Jun   2063.
    ##  3  2015 May   2107.
    ##  4  2015 Apr   2086.
    ##  5  2015 Mar   2068.
    ##  6  2015 Feb   2104.
    ##  7  2015 Jan   1995.
    ##  8  2014 Dec   2059.
    ##  9  2014 Nov   2068.
    ## 10  2014 Oct   2018.
    ## # … with 777 more rows
…
    ## Rows: 68 Columns: 13
    ## ── Column specification ────────────────────────────────────────────────────────
    ## Delimiter: ","
    ## dbl (13): Year, Jan, Feb, Mar, Apr, May, Jun, Jul, Aug, Sep, Oct, Nov, Dec
    ## 
    ## ℹ Use `spec()` to retrieve the full column specification for this data.
    ## ℹ Specify the column types or set `show_col_types = FALSE` to quiet this message.

``` r
show(unemploy_df)
```

    ## # A tibble: 816 × 3
    ##     year month unemployment_rate
    ##    <dbl> <chr>             <dbl>
    ##  1  1948 Jan                 3.4
    ##  2  1948 Feb                 3.8
    ##  3  1948 Mar                 4  
    ##  4  1948 Apr                 3.9
    ##  5  1948 May                 3.5
    ##  6  1948 Jun                 3.6
    ##  7  1948 Jul                 3.6
    ##  8  1948 Aug                 3.9
    ##  9  1948 Sep                 3.8
    ## 10  1948 Oct                 3.7
    ## # … with 806 more rows
…
